…
  data <- data %>% left_join(player_id, by = "player_name") %>% 
    select(
      names(HallOfFame)
    )
  
  data
}

hof24 <- Year_BBHOF("https://www.baseball-reference.com/awards/hof_2024.shtml")

HoF_Complete <- rbind(hof24, HallOfFame)
HoF_Complete
```

    ## # A tibble: 6,411 × 9
    ##    playerID  yearID votedBy ballots needed votes inducted category needed_note
    ##    <chr>      <dbl> <chr>     <dbl>  <dbl> <dbl> <fct>    <fct>    <chr>      
    ##  1 beltrad01   2024 BBWAA       385    289   366 Y        <NA>     <NA>       
    ##  2 heltoto01   2024 BBWAA       385    289   307 Y        <NA>     <NA>       
    ##  3 mauerjo01   2024 BBWAA       385    289   293 Y        <NA>     <NA>       
    ##  4 wagnebi02   2024 BBWAA       385    289   284 N        <NA>     <NA>       
    ##  5 sheffga01   2024 BBWAA       385    289   246 N        <NA>     <NA>       
    ##  6 jonesan01   2024 BBWAA       385    289   237 N        <NA>     <NA>       
    ##  7 beltrca01   2024 BBWAA       385    289   220 N        <NA>     <NA>       
    ##  8 rodrial01   2024 BBWAA       385    289   134 N        <NA>     <NA>       
    ##  9 ramirma02   2024 BBWAA       385    289   125 N        <NA>     <NA>       
    ## 10 utleych01   2024 BBWAA       385    289   111 N        <NA>     <NA>       
    ## # ℹ 6,401 more rows
…
